<?xml version="1.0" encoding="UTF-8"?>
<testsuite xmlns:xsi="http://www.w3.org/2001/XMLSchema-instance" xsi:noNamespaceSchemaLocation="https://maven.apache.org/surefire/maven-surefire-plugin/xsd/surefire-test-report.xsd" name="com.demo.DemoControllerTest" time="8.389" tests="4" errors="0" skipped="0" failures="0">
  <properties>
    <property name="java.specification.version" value="13"/>
    <property name="sun.jnu.encoding" value="UTF-8"/>
    <property name="java.class.path" value="/Users/sheor501/vz/gitlab/arvind-cicd-pipeline/cdaas-demo-app-main/target/test-classes:/Users/sheor501/vz/gitlab/arvind-cicd-pipeline/cdaas-demo-app-main/target/classes:/Users/sheor501/vz/gitlab/arvind-cicd-pipeline/cdaas-demo-app-main/./.mvn/repository/org/springframework/boot/spring-boot-starter-thymeleaf/2.4.0/spring-boot-starter-thymeleaf-2.4.0.jar:/Users/sheor501/vz/gitlab/arvind-cicd-pipeline/cdaas-demo-app-main/./.mvn/repository/org/springframework/boot/spring-boot-starter/2.4.0/spring-boot-starter-2.4.0.jar:/Users/sheor501/vz/gitlab/arvind-cicd-pipeline/cdaas-demo-app-main/./.mvn/repository/org/springframework/boot/spring-boot-starter-logging/2.4.0/spring-boot-starter-logging-2.4.0.jar:/Users/sheor501/vz/gitlab/arvind-cicd-pipeline/cdaas-demo-app-main/./.mvn/repository/ch/qos/logback/logback-classic/1.2.3/logback-classic-1.2.3.jar:/Users/sheor501/vz/gitlab/arvind-cicd-pipeline/cdaas-demo-app-main/./.mvn/repository/ch/qos/logback/logback-core/1.2.3/logback-core-1.2.3.jar:/Users/sheor501/vz/gitlab/arvind-cicd-pipeline/cdaas-demo-app-main/./.mvn/repository/org/apache/logging/log4j/log4j-to-slf4j/2.13.3/log4j-to-slf4j-2.13.3.jar:/Users/sheor501/vz/gitlab/arvind-cicd-pipeline/cdaas-demo-app-main/./.mvn/repository/org/apache/logging/log4j/log4j-api/2.13.3/log4j-api-2.13.3.jar:/Users/sheor501/vz/gitlab/arvind-cicd-pipeline/cdaas-demo-app-main/./.mvn/repository/org/slf4j/jul-to-slf4j/1.7.30/jul-to-slf4j-1.7.30.jar:/Users/sheor501/vz/gitlab/arvind-cicd-pipeline/cdaas-demo-app-main/./.mvn/repository/jakarta/annotation/jakarta.annotation-api/1.3.5/jakarta.annotation-api-1.3.5.jar:/Users/sheor501/vz/gitlab/arvind-cicd-pipeline/cdaas-demo-app-main/./.mvn/repository/org/yaml/snakeyaml/1.27/snakeyaml-1.27.jar:/Users/sheor501/vz/gitlab/arvind-cicd-pipeline/cdaas-demo-app-main/./.mvn/repository/org/thymeleaf/thymeleaf-spring5/3.0.11.RELEASE/thymeleaf-spring5-3.0.11.RELEASE.jar:/Users/sheor501/vz/gitlab/arvind-cicd-pipeline/cdaas-demo-app-main/./.mvn/repository/org/thymeleaf/thymeleaf/3.0.11.RELEASE/thymeleaf-3.0.11.RELEASE.jar:/Users/sheor501/vz/gitlab/arvind-cicd-pipeline/cdaas-demo-app-main/./.mvn/repository/org/attoparser/attoparser/2.0.5.RELEASE/attoparser-2.0.5.RELEASE.jar:/Users/sheor501/vz/gitlab/arvind-cicd-pipeline/cdaas-demo-app-main/./.mvn/repository/org/unbescape/unbescape/1.1.6.RELEASE/unbescape-1.1.6.RELEASE.jar:/Users/sheor501/vz/gitlab/arvind-cicd-pipeline/cdaas-demo-app-main/./.mvn/repository/org/slf4j/slf4j-api/1.7.30/slf4j-api-1.7.30.jar:/Users/sheor501/vz/gitlab/arvind-cicd-pipeline/cdaas-demo-app-main/./.mvn/repository/org/thymeleaf/extras/thymeleaf-extras-java8time/3.0.4.RELEASE/thymeleaf-extras-java8time-3.0.4.RELEASE.jar:/Users/sheor501/vz/gitlab/arvind-cicd-pipeline/cdaas-demo-app-main/./.mvn/repository/org/springframework/boot/spring-boot-starter-web/2.4.0/spring-boot-starter-web-2.4.0.jar:/Users/sheor501/vz/gitlab/arvind-cicd-pipeline/cdaas-demo-app-main/./.mvn/repository/org/springframework/boot/spring-boot-starter-json/2.4.0/spring-boot-starter-json-2.4.0.jar:/Users/sheor501/vz/gitlab/arvind-cicd-pipeline/cdaas-demo-app-main/./.mvn/repository/com/fasterxml/jackson/core/jackson-databind/2.11.3/jackson-databind-2.11.3.jar:/Users/sheor501/vz/gitlab/arvind-cicd-pipeline/cdaas-demo-app-main/./.mvn/repository/com/fasterxml/jackson/core/jackson-annotations/2.11.3/jackson-annotations-2.11.3.jar:/Users/sheor501/vz/gitlab/arvind-cicd-pipeline/cdaas-demo-app-main/./.mvn/repository/com/fasterxml/jackson/core/jackson-core/2.11.3/jackson-core-2.11.3.jar:/Users/sheor501/vz/gitlab/arvind-cicd-pipeline/cdaas-demo-app-main/./.mvn/repository/com/fasterxml/jackson/datatype/jackson-datatype-jdk8/2.11.3/jackson-datatype-jdk8-2.11.3.jar:/Users/sheor501/vz/gitlab/arvind-cicd-pipeline/cdaas-demo-app-main/./.mvn/repository/com/fasterxml/jackson/datatype/jackson-datatype-jsr310/2.11.3/jackson-datatype-jsr310-2.11.3.jar:/Users/sheor501/vz/gitlab/arvind-cicd-pipeline/cdaas-demo-app-main/./.mvn/repository/com/fasterxml/jackson/module/jackson-module-parameter-names/2.11.3/jackson-module-parameter-names-2.11.3.jar:/Users/sheor501/vz/gitlab/arvind-cicd-pipeline/cdaas-demo-app-main/./.mvn/repository/org/springframework/boot/spring-boot-starter-tomcat/2.4.0/spring-boot-starter-tomcat-2.4.0.jar:/Users/sheor501/vz/gitlab/arvind-cicd-pipeline/cdaas-demo-app-main/./.mvn/repository/org/apache/tomcat/embed/tomcat-embed-core/9.0.39/tomcat-embed-core-9.0.39.jar:/Users/sheor501/vz/gitlab/arvind-cicd-pipeline/cdaas-demo-app-main/./.mvn/repository/org/glassfish/jakarta.el/3.0.3/jakarta.el-3.0.3.jar:/Users/sheor501/vz/gitlab/arvind-cicd-pipeline/cdaas-demo-app-main/./.mvn/repository/org/apache/tomcat/embed/tomcat-embed-websocket/9.0.39/tomcat-embed-websocket-9.0.39.jar:/Users/sheor501/vz/gitlab/arvind-cicd-pipeline/cdaas-demo-app-main/./.mvn/repository/org/springframework/spring-web/5.3.1/spring-web-5.3.1.jar:/Users/sheor501/vz/gitlab/arvind-cicd-pipeline/cdaas-demo-app-main/./.mvn/repository/org/springframework/spring-beans/5.3.1/spring-beans-5.3.1.jar:/Users/sheor501/vz/gitlab/arvind-cicd-pipeline/cdaas-demo-app-main/./.mvn/repository/org/springframework/spring-webmvc/5.3.1/spring-webmvc-5.3.1.jar:/Users/sheor501/vz/gitlab/arvind-cicd-pipeline/cdaas-demo-app-main/./.mvn/repository/org/springframework/spring-aop/5.3.1/spring-aop-5.3.1.jar:/Users/sheor501/vz/gitlab/arvind-cicd-pipeline/cdaas-demo-app-main/./.mvn/repository/org/springframework/spring-context/5.3.1/spring-context-5.3.1.jar:/Users/sheor501/vz/gitlab/arvind-cicd-pipeline/cdaas-demo-app-main/./.mvn/repository/org/springframework/spring-expression/5.3.1/spring-expression-5.3.1.jar:/Users/sheor501/vz/gitlab/arvind-cicd-pipeline/cdaas-demo-app-main/./.mvn/repository/org/springframework/boot/spring-boot-starter-actuator/2.4.0/spring-boot-starter-actuator-2.4.0.jar:/Users/sheor501/vz/gitlab/arvind-cicd-pipeline/cdaas-demo-app-main/./.mvn/repository/org/springframework/boot/spring-boot-actuator-autoconfigure/2.4.0/spring-boot-actuator-autoconfigure-2.4.0.jar:/Users/sheor501/vz/gitlab/arvind-cicd-pipeline/cdaas-demo-app-main/./.mvn/repository/org/springframework/boot/spring-boot-actuator/2.4.0/spring-boot-actuator-2.4.0.jar:/Users/sheor501/vz/gitlab/arvind-cicd-pipeline/cdaas-demo-app-main/./.mvn/repository/io/micrometer/micrometer-core/1.6.1/micrometer-core-1.6.1.jar:/Users/sheor501/vz/gitlab/arvind-cicd-pipeline/cdaas-demo-app-main/./.mvn/repository/org/hdrhistogram/HdrHistogram/2.1.12/HdrHistogram-2.1.12.jar:/Users/sheor501/vz/gitlab/arvind-cicd-pipeline/cdaas-demo-app-main/./.mvn/repository/org/latencyutils/LatencyUtils/2.0.3/LatencyUtils-2.0.3.jar:/Users/sheor501/vz/gitlab/arvind-cicd-pipeline/cdaas-demo-app-main/./.mvn/repository/org/springframework/boot/spring-boot-devtools/2.4.0/spring-boot-devtools-2.4.0.jar:/Users/sheor501/vz/gitlab/arvind-cicd-pipeline/cdaas-demo-app-main/./.mvn/repository/org/springframework/boot/spring-boot/2.4.0/spring-boot-2.4.0.jar:/Users/sheor501/vz/gitlab/arvind-cicd-pipeline/cdaas-demo-app-main/./.mvn/repository/org/springframework/boot/spring-boot-autoconfigure/2.4.0/spring-boot-autoconfigure-2.4.0.jar:/Users/sheor501/vz/gitlab/arvind-cicd-pipeline/cdaas-demo-app-main/./.mvn/repository/org/springframework/boot/spring-boot-starter-test/2.4.0/spring-boot-starter-test-2.4.0.jar:/Users/sheor501/vz/gitlab/arvind-cicd-pipeline/cdaas-demo-app-main/./.mvn/repository/org/springframework/boot/spring-boot-test/2.4.0/spring-boot-test-2.4.0.jar:/Users/sheor501/vz/gitlab/arvind-cicd-pipeline/cdaas-demo-app-main/./.mvn/repository/org/springframework/boot/spring-boot-test-autoconfigure/2.4.0/spring-boot-test-autoconfigure-2.4.0.jar:/Users/sheor501/vz/gitlab/arvind-cicd-pipeline/cdaas-demo-app-main/./.mvn/repository/com/jayway/jsonpath/json-path/2.4.0/json-path-2.4.0.jar:/Users/sheor501/vz/gitlab/arvind-cicd-pipeline/cdaas-demo-app-main/./.mvn/repository/net/minidev/json-smart/2.3/json-smart-2.3.jar:/Users/sheor501/vz/gitlab/arvind-cicd-pipeline/cdaas-demo-app-main/./.mvn/repository/net/minidev/accessors-smart/1.2/accessors-smart-1.2.jar:/Users/sheor501/vz/gitlab/arvind-cicd-pipeline/cdaas-demo-app-main/./.mvn/repository/org/ow2/asm/asm/5.0.4/asm-5.0.4.jar:/Users/sheor501/vz/gitlab/arvind-cicd-pipeline/cdaas-demo-app-main/./.mvn/repository/jakarta/xml/bind/jakarta.xml.bind-api/2.3.3/jakarta.xml.bind-api-2.3.3.jar:/Users/sheor501/vz/gitlab/arvind-cicd-pipeline/cdaas-demo-app-main/./.mvn/repository/jakarta/activation/jakarta.activation-api/1.2.2/jakarta.activation-api-1.2.2.jar:/Users/sheor501/vz/gitlab/arvind-cicd-pipeline/cdaas-demo-app-main/./.mvn/repository/org/assertj/assertj-core/3.18.1/assertj-core-3.18.1.jar:/Users/sheor501/vz/gitlab/arvind-cicd-pipeline/cdaas-demo-app-main/./.mvn/repository/org/hamcrest/hamcrest/2.2/hamcrest-2.2.jar:/Users/sheor501/vz/gitlab/arvind-cicd-pipeline/cdaas-demo-app-main/./.mvn/repository/org/junit/jupiter/junit-jupiter/5.7.0/junit-jupiter-5.7.0.jar:/Users/sheor501/vz/gitlab/arvind-cicd-pipeline/cdaas-demo-app-main/./.mvn/repository/org/junit/jupiter/junit-jupiter-api/5.7.0/junit-jupiter-api-5.7.0.jar:/Users/sheor501/vz/gitlab/arvind-cicd-pipeline/cdaas-demo-app-main/./.mvn/repository/org/apiguardian/apiguardian-api/1.1.0/apiguardian-api-1.1.0.jar:/Users/sheor501/vz/gitlab/arvind-cicd-pipeline/cdaas-demo-app-main/./.mvn/repository/org/opentest4j/opentest4j/1.2.0/opentest4j-1.2.0.jar:/Users/sheor501/vz/gitlab/arvind-cicd-pipeline/cdaas-demo-app-main/./.mvn/repository/org/junit/platform/junit-platform-commons/1.7.0/junit-platform-commons-1.7.0.jar:/Users/sheor501/vz/gitlab/arvind-cicd-pipeline/cdaas-demo-app-main/./.mvn/repository/org/junit/jupiter/junit-jupiter-params/5.7.0/junit-jupiter-params-5.7.0.jar:/Users/sheor501/vz/gitlab/arvind-cicd-pipeline/cdaas-demo-app-main/./.mvn/repository/org/junit/jupiter/junit-jupiter-engine/5.7.0/junit-jupiter-engine-5.7.0.jar:/Users/sheor501/vz/gitlab/arvind-cicd-pipeline/cdaas-demo-app-main/./.mvn/repository/org/junit/platform/junit-platform-engine/1.7.0/junit-platform-engine-1.7.0.jar:/Users/sheor501/vz/gitlab/arvind-cicd-pipeline/cdaas-demo-app-main/./.mvn/repository/org/mockito/mockito-core/3.6.0/mockito-core-3.6.0.jar:/Users/sheor501/vz/gitlab/arvind-cicd-pipeline/cdaas-demo-app-main/./.mvn/repository/net/bytebuddy/byte-buddy/1.10.18/byte-buddy-1.10.18.jar:/Users/sheor501/vz/gitlab/arvind-cicd-pipeline/cdaas-demo-app-main/./.mvn/repository/net/bytebuddy/byte-buddy-agent/1.10.18/byte-buddy-agent-1.10.18.jar:/Users/sheor501/vz/gitlab/arvind-cicd-pipeline/cdaas-demo-app-main/./.mvn/repository/org/objenesis/objenesis/3.1/objenesis-3.1.jar:/Users/sheor501/vz/gitlab/arvind-cicd-pipeline/cdaas-demo-app-main/./.mvn/repository/org/mockito/mockito-junit-jupiter/3.6.0/mockito-junit-jupiter-3.6.0.jar:/Users/sheor501/vz/gitlab/arvind-cicd-pipeline/cdaas-demo-app-main/./.mvn/repository/org/skyscreamer/jsonassert/1.5.0/jsonassert-1.5.0.jar:/Users/sheor501/vz/gitlab/arvind-cicd-pipeline/cdaas-demo-app-main/./.mvn/repository/com/vaadin/external/google/android-json/0.0.20131108.vaadin1/android-json-0.0.20131108.vaadin1.jar:/Users/sheor501/vz/gitlab/arvind-cicd-pipeline/cdaas-demo-app-main/./.mvn/repository/org/springframework/spring-core/5.3.1/spring-core-5.3.1.jar:/Users/sheor501/vz/gitlab/arvind-cicd-pipeline/cdaas-demo-app-main/./.mvn/repository/org/springframework/spring-jcl/5.3.1/spring-jcl-5.3.1.jar:/Users/sheor501/vz/gitlab/arvind-cicd-pipeline/cdaas-demo-app-main/./.mvn/repository/org/springframework/spring-test/5.3.1/spring-test-5.3.1.jar:/Users/sheor501/vz/gitlab/arvind-cicd-pipeline/cdaas-demo-app-main/./.mvn/repository/org/xmlunit/xmlunit-core/2.7.0/xmlunit-core-2.7.0.jar:/Users/sheor501/vz/gitlab/arvind-cicd-pipeline/cdaas-demo-app-main/./.mvn/repository/io/gatling/highcharts/gatling-charts-highcharts/3.5.0/gatling-charts-highcharts-3.5.0.jar:/Users/sheor501/vz/gitlab/arvind-cicd-pipeline/cdaas-demo-app-main/./.mvn/repository/org/scala-lang/scala-library/2.13.3/scala-library-2.13.3.jar:/Users/sheor501/vz/gitlab/arvind-cicd-pipeline/cdaas-demo-app-main/./.mvn/repository/io/gatling/gatling-app/3.5.0/gatling-app-3.5.0.jar:/Users/sheor501/vz/gitlab/arvind-cicd-pipeline/cdaas-demo-app-main/./.mvn/repository/io/gatling/gatling-core/3.5.0/gatling-core-3.5.0.jar:/Users/sheor501/vz/gitlab/arvind-cicd-pipeline/cdaas-demo-app-main/./.mvn/repository/io/gatling/gatling-commons/3.5.0/gatling-commons-3.5.0.jar:/Users/sheor501/vz/gitlab/arvind-cicd-pipeline/cdaas-demo-app-main/./.mvn/repository/io/gatling/gatling-commons-shared/3.5.0/gatling-commons-shared-3.5.0.jar:/Users/sheor501/vz/gitlab/arvind-cicd-pipeline/cdaas-demo-app-main/./.mvn/repository/org/scala-lang/scala-reflect/2.13.3/scala-reflect-2.13.3.jar:/Users/sheor501/vz/gitlab/arvind-cicd-pipeline/cdaas-demo-app-main/./.mvn/repository/io/suzaku/boopickle_2.13/1.3.3/boopickle_2.13-1.3.3.jar:/Users/sheor501/vz/gitlab/arvind-cicd-pipeline/cdaas-demo-app-main/./.mvn/repository/io/gatling/gatling-commons-shared-unstable/3.5.0/gatling-commons-shared-unstable-3.5.0.jar:/Users/sheor501/vz/gitlab/arvind-cicd-pipeline/cdaas-demo-app-main/./.mvn/repository/org/typelevel/spire-macros_2.13/0.17.0/spire-macros_2.13-0.17.0.jar:/Users/sheor501/vz/gitlab/arvind-cicd-pipeline/cdaas-demo-app-main/./.mvn/repository/com/typesafe/scala-logging/scala-logging_2.13/3.9.2/scala-logging_2.13-3.9.2.jar:/Users/sheor501/vz/gitlab/arvind-cicd-pipeline/cdaas-demo-app-main/./.mvn/repository/io/gatling/gatling-jsonpath/3.5.0/gatling-jsonpath-3.5.0.jar:/Users/sheor501/vz/gitlab/arvind-cicd-pipeline/cdaas-demo-app-main/./.mvn/repository/com/typesafe/akka/akka-slf4j_2.13/2.6.10/akka-slf4j_2.13-2.6.10.jar:/Users/sheor501/vz/gitlab/arvind-cicd-pipeline/cdaas-demo-app-main/./.mvn/repository/org/simpleflatmapper/lightning-csv/8.2.3/lightning-csv-8.2.3.jar:/Users/sheor501/vz/gitlab/arvind-cicd-pipeline/cdaas-demo-app-main/./.mvn/repository/org/simpleflatmapper/sfm-util/8.2.3/sfm-util-8.2.3.jar:/Users/sheor501/vz/gitlab/arvind-cicd-pipeline/cdaas-demo-app-main/./.mvn/repository/com/github/ben-manes/caffeine/caffeine/2.8.6/caffeine-2.8.6.jar:/Users/sheor501/vz/gitlab/arvind-cicd-pipeline/cdaas-demo-app-main/./.mvn/repository/org/checkerframework/checker-qual/3.7.0/checker-qual-3.7.0.jar:/Users/sheor501/vz/gitlab/arvind-cicd-pipeline/cdaas-demo-app-main/./.mvn/repository/com/google/errorprone/error_prone_annotations/2.4.0/error_prone_annotations-2.4.0.jar:/Users/sheor501/vz/gitlab/arvind-cicd-pipeline/cdaas-demo-app-main/./.mvn/repository/io/pebbletemplates/pebble/3.1.4/pebble-3.1.4.jar:/Users/sheor501/vz/gitlab/arvind-cicd-pipeline/cdaas-demo-app-main/./.mvn/repository/org/scala-lang/modules/scala-parser-combinators_2.13/1.1.2/scala-parser-combinators_2.13-1.1.2.jar:/Users/sheor501/vz/gitlab/arvind-cicd-pipeline/cdaas-demo-app-main/./.mvn/repository/com/github/scopt/scopt_2.13/3.7.1/scopt_2.13-3.7.1.jar:/Users/sheor501/vz/gitlab/arvind-cicd-pipeline/cdaas-demo-app-main/./.mvn/repository/io/netty/netty-handler/4.1.54.Final/netty-handler-4.1.54.Final.jar:/Users/sheor501/vz/gitlab/arvind-cicd-pipeline/cdaas-demo-app-main/./.mvn/repository/io/netty/netty-resolver/4.1.54.Final/netty-resolver-4.1.54.Final.jar:/Users/sheor501/vz/gitlab/arvind-cicd-pipeline/cdaas-demo-app-main/./.mvn/repository/com/softwaremill/quicklens/quicklens_2.13/1.6.1/quicklens_2.13-1.6.1.jar:/Users/sheor501/vz/gitlab/arvind-cicd-pipeline/cdaas-demo-app-main/./.mvn/repository/net/sf/saxon/Saxon-HE/10.3/Saxon-HE-10.3.jar:/Users/sheor501/vz/gitlab/arvind-cicd-pipeline/cdaas-demo-app-main/./.mvn/repository/org/jodd/jodd-lagarto/6.0.2/jodd-lagarto-6.0.2.jar:/Users/sheor501/vz/gitlab/arvind-cicd-pipeline/cdaas-demo-app-main/./.mvn/repository/org/jodd/jodd-util/6.0.0/jodd-util-6.0.0.jar:/Users/sheor501/vz/gitlab/arvind-cicd-pipeline/cdaas-demo-app-main/./.mvn/repository/io/burt/jmespath-jackson/0.5.0/jmespath-jackson-0.5.0.jar:/Users/sheor501/vz/gitlab/arvind-cicd-pipeline/cdaas-demo-app-main/./.mvn/repository/io/burt/jmespath-core/0.5.0/jmespath-core-0.5.0.jar:/Users/sheor501/vz/gitlab/arvind-cicd-pipeline/cdaas-demo-app-main/./.mvn/repository/io/gatling/gatling-http/3.5.0/gatling-http-3.5.0.jar:/Users/sheor501/vz/gitlab/arvind-cicd-pipeline/cdaas-demo-app-main/./.mvn/repository/io/gatling/gatling-http-client/3.5.0/gatling-http-client-3.5.0.jar:/Users/sheor501/vz/gitlab/arvind-cicd-pipeline/cdaas-demo-app-main/./.mvn/repository/io/gatling/gatling-netty-util/3.5.0/gatling-netty-util-3.5.0.jar:/Users/sheor501/vz/gitlab/arvind-cicd-pipeline/cdaas-demo-app-main/./.mvn/repository/io/netty/netty-handler-proxy/4.1.54.Final/netty-handler-proxy-4.1.54.Final.jar:/Users/sheor501/vz/gitlab/arvind-cicd-pipeline/cdaas-demo-app-main/./.mvn/repository/io/netty/netty-codec-socks/4.1.54.Final/netty-codec-socks-4.1.54.Final.jar:/Users/sheor501/vz/gitlab/arvind-cicd-pipeline/cdaas-demo-app-main/./.mvn/repository/io/netty/netty-resolver-dns/4.1.54.Final/netty-resolver-dns-4.1.54.Final.jar:/Users/sheor501/vz/gitlab/arvind-cicd-pipeline/cdaas-demo-app-main/./.mvn/repository/io/netty/netty-codec-dns/4.1.54.Final/netty-codec-dns-4.1.54.Final.jar:/Users/sheor501/vz/gitlab/arvind-cicd-pipeline/cdaas-demo-app-main/./.mvn/repository/io/netty/netty-transport-native-epoll/4.1.54.Final/netty-transport-native-epoll-4.1.54.Final-linux-x86_64.jar:/Users/sheor501/vz/gitlab/arvind-cicd-pipeline/cdaas-demo-app-main/./.mvn/repository/io/netty/netty-transport-native-unix-common/4.1.54.Final/netty-transport-native-unix-common-4.1.54.Final.jar:/Users/sheor501/vz/gitlab/arvind-cicd-pipeline/cdaas-demo-app-main/./.mvn/repository/io/netty/netty-codec-http2/4.1.54.Final/netty-codec-http2-4.1.54.Final.jar:/Users/sheor501/vz/gitlab/arvind-cicd-pipeline/cdaas-demo-app-main/./.mvn/repository/io/netty/netty-tcnative-boringssl-static/2.0.34.Final/netty-tcnative-boringssl-static-2.0.34.Final.jar:/Users/sheor501/vz/gitlab/arvind-cicd-pipeline/cdaas-demo-app-main/./.mvn/repository/io/gatling/gatling-jms/3.5.0/gatling-jms-3.5.0.jar:/Users/sheor501/vz/gitlab/arvind-cicd-pipeline/cdaas-demo-app-main/./.mvn/repository/javax/jms/javax.jms-api/2.0.1/javax.jms-api-2.0.1.jar:/Users/sheor501/vz/gitlab/arvind-cicd-pipeline/cdaas-demo-app-main/./.mvn/repository/com/eatthepath/fast-uuid/0.1/fast-uuid-0.1.jar:/Users/sheor501/vz/gitlab/arvind-cicd-pipeline/cdaas-demo-app-main/./.mvn/repository/io/gatling/gatling-jdbc/3.5.0/gatling-jdbc-3.5.0.jar:/Users/sheor501/vz/gitlab/arvind-cicd-pipeline/cdaas-demo-app-main/./.mvn/repository/io/gatling/gatling-redis/3.5.0/gatling-redis-3.5.0.jar:/Users/sheor501/vz/gitlab/arvind-cicd-pipeline/cdaas-demo-app-main/./.mvn/repository/net/debasishg/redisclient_2.13/3.30/redisclient_2.13-3.30.jar:/Users/sheor501/vz/gitlab/arvind-cicd-pipeline/cdaas-demo-app-main/./.mvn/repository/org/apache/commons/commons-pool2/2.9.0/commons-pool2-2.9.0.jar:/Users/sheor501/vz/gitlab/arvind-cicd-pipeline/cdaas-demo-app-main/./.mvn/repository/io/gatling/gatling-graphite/3.5.0/gatling-graphite-3.5.0.jar:/Users/sheor501/vz/gitlab/arvind-cicd-pipeline/cdaas-demo-app-main/./.mvn/repository/io/gatling/gatling-charts/3.5.0/gatling-charts-3.5.0.jar:/Users/sheor501/vz/gitlab/arvind-cicd-pipeline/cdaas-demo-app-main/./.mvn/repository/com/tdunning/t-digest/3.1/t-digest-3.1.jar:/Users/sheor501/vz/gitlab/arvind-cicd-pipeline/cdaas-demo-app-main/./.mvn/repository/io/gatling/gatling-recorder/3.5.0/gatling-recorder-3.5.0.jar:/Users/sheor501/vz/gitlab/arvind-cicd-pipeline/cdaas-demo-app-main/./.mvn/repository/org/scala-lang/modules/scala-swing_2.13/3.0.0/scala-swing_2.13-3.0.0.jar:/Users/sheor501/vz/gitlab/arvind-cicd-pipeline/cdaas-demo-app-main/./.mvn/repository/org/bouncycastle/bcpkix-jdk15on/1.67/bcpkix-jdk15on-1.67.jar:/Users/sheor501/vz/gitlab/arvind-cicd-pipeline/cdaas-demo-app-main/./.mvn/repository/org/bouncycastle/bcprov-jdk15on/1.67/bcprov-jdk15on-1.67.jar:/Users/sheor501/vz/gitlab/arvind-cicd-pipeline/cdaas-demo-app-main/./.mvn/repository/io/netty/netty-codec-http/4.1.54.Final/netty-codec-http-4.1.54.Final.jar:/Users/sheor501/vz/gitlab/arvind-cicd-pipeline/cdaas-demo-app-main/./.mvn/repository/io/netty/netty-common/4.1.54.Final/netty-common-4.1.54.Final.jar:/Users/sheor501/vz/gitlab/arvind-cicd-pipeline/cdaas-demo-app-main/./.mvn/repository/io/netty/netty-buffer/4.1.54.Final/netty-buffer-4.1.54.Final.jar:/Users/sheor501/vz/gitlab/arvind-cicd-pipeline/cdaas-demo-app-main/./.mvn/repository/io/netty/netty-transport/4.1.54.Final/netty-transport-4.1.54.Final.jar:/Users/sheor501/vz/gitlab/arvind-cicd-pipeline/cdaas-demo-app-main/./.mvn/repository/io/netty/netty-codec/4.1.54.Final/netty-codec-4.1.54.Final.jar:/Users/sheor501/vz/gitlab/arvind-cicd-pipeline/cdaas-demo-app-main/./.mvn/repository/com/typesafe/akka/akka-actor_2.13/2.6.10/akka-actor_2.13-2.6.10.jar:/Users/sheor501/vz/gitlab/arvind-cicd-pipeline/cdaas-demo-app-main/./.mvn/repository/com/typesafe/config/1.4.0/config-1.4.0.jar:/Users/sheor501/vz/gitlab/arvind-cicd-pipeline/cdaas-demo-app-main/./.mvn/repository/org/scala-lang/modules/scala-java8-compat_2.13/0.9.0/scala-java8-compat_2.13-0.9.0.jar:"/>
    <property name="java.vm.vendor" value="Oracle Corporation"/>
    <property name="sun.arch.data.model" value="64"/>
    <property name="java.vendor.url" value="https://java.oracle.com/"/>
    <property name="os.name" value="Mac OS X"/>
    <property name="java.vm.specification.version" value="13"/>
    <property name="sun.java.launcher" value="SUN_STANDARD"/>
    <property name="user.country" value="US"/>
    <property name="sun.boot.library.path" value="/Library/Java/JavaVirtualMachines/jdk-13.0.1.jdk/Contents/Home/lib"/>
    <property name="sun.java.command" value="/Users/sheor501/vz/gitlab/arvind-cicd-pipeline/cdaas-demo-app-main/target/surefire/surefirebooter14306425813166083189.jar /Users/sheor501/vz/gitlab/arvind-cicd-pipeline/cdaas-demo-app-main/target/surefire 2021-05-07T00-08-23_527-jvmRun1 surefire10531584882796993861tmp surefire_016942570360706175937tmp"/>
    <property name="http.nonProxyHosts" value="local|*.local|169.254/16|*.169.254/16|localhost|*.localhost"/>
    <property name="jdk.debug" value="release"/>
    <property name="surefire.test.class.path" value="/Users/sheor501/vz/gitlab/arvind-cicd-pipeline/cdaas-demo-app-main/target/test-classes:/Users/sheor501/vz/gitlab/arvind-cicd-pipeline/cdaas-demo-app-main/target/classes:/Users/sheor501/vz/gitlab/arvind-cicd-pipeline/cdaas-demo-app-main/./.mvn/repository/org/springframework/boot/spring-boot-starter-thymeleaf/2.4.0/spring-boot-starter-thymeleaf-2.4.0.jar:/Users/sheor501/vz/gitlab/arvind-cicd-pipeline/cdaas-demo-app-main/./.mvn/repository/org/springframework/boot/spring-boot-starter/2.4.0/spring-boot-starter-2.4.0.jar:/Users/sheor501/vz/gitlab/arvind-cicd-pipeline/cdaas-demo-app-main/./.mvn/repository/org/springframework/boot/spring-boot-starter-logging/2.4.0/spring-boot-starter-logging-2.4.0.jar:/Users/sheor501/vz/gitlab/arvind-cicd-pipeline/cdaas-demo-app-main/./.mvn/repository/ch/qos/logback/logback-classic/1.2.3/logback-classic-1.2.3.jar:/Users/sheor501/vz/gitlab/arvind-cicd-pipeline/cdaas-demo-app-main/./.mvn/repository/ch/qos/logback/logback-core/1.2.3/logback-core-1.2.3.jar:/Users/sheor501/vz/gitlab/arvind-cicd-pipeline/cdaas-demo-app-main/./.mvn/repository/org/apache/logging/log4j/log4j-to-slf4j/2.13.3/log4j-to-slf4j-2.13.3.jar:/Users/sheor501/vz/gitlab/arvind-cicd-pipeline/cdaas-demo-app-main/./.mvn/repository/org/apache/logging/log4j/log4j-api/2.13.3/log4j-api-2.13.3.jar:/Users/sheor501/vz/gitlab/arvind-cicd-pipeline/cdaas-demo-app-main/./.mvn/repository/org/slf4j/jul-to-slf4j/1.7.30/jul-to-slf4j-1.7.30.jar:/Users/sheor501/vz/gitlab/arvind-cicd-pipeline/cdaas-demo-app-main/./.mvn/repository/jakarta/annotation/jakarta.annotation-api/1.3.5/jakarta.annotation-api-1.3.5.jar:/Users/sheor501/vz/gitlab/arvind-cicd-pipeline/cdaas-demo-app-main/./.mvn/repository/org/yaml/snakeyaml/1.27/snakeyaml-1.27.jar:/Users/sheor501/vz/gitlab/arvind-cicd-pipeline/cdaas-demo-app-main/./.mvn/repository/org/thymeleaf/thymeleaf-spring5/3.0.11.RELEASE/thymeleaf-spring5-3.0.11.RELEASE.jar:/Users/sheor501/vz/gitlab/arvind-cicd-pipeline/cdaas-demo-app-main/./.mvn/repository/org/thymeleaf/thymeleaf/3.0.11.RELEASE/thymeleaf-3.0.11.RELEASE.jar:/Users/sheor501/vz/gitlab/arvind-cicd-pipeline/cdaas-demo-app-main/./.mvn/repository/org/attoparser/attoparser/2.0.5.RELEASE/attoparser-2.0.5.RELEASE.jar:/Users/sheor501/vz/gitlab/arvind-cicd-pipeline/cdaas-demo-app-main/./.mvn/repository/org/unbescape/unbescape/1.1.6.RELEASE/unbescape-1.1.6.RELEASE.jar:/Users/sheor501/vz/gitlab/arvind-cicd-pipeline/cdaas-demo-app-main/./.mvn/repository/org/slf4j/slf4j-api/1.7.30/slf4j-api-1.7.30.jar:/Users/sheor501/vz/gitlab/arvind-cicd-pipeline/cdaas-demo-app-main/./.mvn/repository/org/thymeleaf/extras/thymeleaf-extras-java8time/3.0.4.RELEASE/thymeleaf-extras-java8time-3.0.4.RELEASE.jar:/Users/sheor501/vz/gitlab/arvind-cicd-pipeline/cdaas-demo-app-main/./.mvn/repository/org/springframework/boot/spring-boot-starter-web/2.4.0/spring-boot-starter-web-2.4.0.jar:/Users/sheor501/vz/gitlab/arvind-cicd-pipeline/cdaas-demo-app-main/./.mvn/repository/org/springframework/boot/spring-boot-starter-json/2.4.0/spring-boot-starter-json-2.4.0.jar:/Users/sheor501/vz/gitlab/arvind-cicd-pipeline/cdaas-demo-app-main/./.mvn/repository/com/fasterxml/jackson/core/jackson-databind/2.11.3/jackson-databind-2.11.3.jar:/Users/sheor501/vz/gitlab/arvind-cicd-pipeline/cdaas-demo-app-main/./.mvn/repository/com/fasterxml/jackson/core/jackson-annotations/2.11.3/jackson-annotations-2.11.3.jar:/Users/sheor501/vz/gitlab/arvind-cicd-pipeline/cdaas-demo-app-main/./.mvn/repository/com/fasterxml/jackson/core/jackson-core/2.11.3/jackson-core-2.11.3.jar:/Users/sheor501/vz/gitlab/arvind-cicd-pipeline/cdaas-demo-app-main/./.mvn/repository/com/fasterxml/jackson/datatype/jackson-datatype-jdk8/2.11.3/jackson-datatype-jdk8-2.11.3.jar:/Users/sheor501/vz/gitlab/arvind-cicd-pipeline/cdaas-demo-app-main/./.mvn/repository/com/fasterxml/jackson/datatype/jackson-datatype-jsr310/2.11.3/jackson-datatype-jsr310-2.11.3.jar:/Users/sheor501/vz/gitlab/arvind-cicd-pipeline/cdaas-demo-app-main/./.mvn/repository/com/fasterxml/jackson/module/jackson-module-parameter-names/2.11.3/jackson-module-parameter-names-2.11.3.jar:/Users/sheor501/vz/gitlab/arvind-cicd-pipeline/cdaas-demo-app-main/./.mvn/repository/org/springframework/boot/spring-boot-starter-tomcat/2.4.0/spring-boot-starter-tomcat-2.4.0.jar:/Users/sheor501/vz/gitlab/arvind-cicd-pipeline/cdaas-demo-app-main/./.mvn/repository/org/apache/tomcat/embed/tomcat-embed-core/9.0.39/tomcat-embed-core-9.0.39.jar:/Users/sheor501/vz/gitlab/arvind-cicd-pipeline/cdaas-demo-app-main/./.mvn/repository/org/glassfish/jakarta.el/3.0.3/jakarta.el-3.0.3.jar:/Users/sheor501/vz/gitlab/arvind-cicd-pipeline/cdaas-demo-app-main/./.mvn/repository/org/apache/tomcat/embed/tomcat-embed-websocket/9.0.39/tomcat-embed-websocket-9.0.39.jar:/Users/sheor501/vz/gitlab/arvind-cicd-pipeline/cdaas-demo-app-main/./.mvn/repository/org/springframework/spring-web/5.3.1/spring-web-5.3.1.jar:/Users/sheor501/vz/gitlab/arvind-cicd-pipeline/cdaas-demo-app-main/./.mvn/repository/org/springframework/spring-beans/5.3.1/spring-beans-5.3.1.jar:/Users/sheor501/vz/gitlab/arvind-cicd-pipeline/cdaas-demo-app-main/./.mvn/repository/org/springframework/spring-webmvc/5.3.1/spring-webmvc-5.3.1.jar:/Users/sheor501/vz/gitlab/arvind-cicd-pipeline/cdaas-demo-app-main/./.mvn/repository/org/springframework/spring-aop/5.3.1/spring-aop-5.3.1.jar:/Users/sheor501/vz/gitlab/arvind-cicd-pipeline/cdaas-demo-app-main/./.mvn/repository/org/springframework/spring-context/5.3.1/spring-context-5.3.1.jar:/Users/sheor501/vz/gitlab/arvind-cicd-pipeline/cdaas-demo-app-main/./.mvn/repository/org/springframework/spring-expression/5.3.1/spring-expression-5.3.1.jar:/Users/sheor501/vz/gitlab/arvind-cicd-pipeline/cdaas-demo-app-main/./.mvn/repository/org/springframework/boot/spring-boot-starter-actuator/2.4.0/spring-boot-starter-actuator-2.4.0.jar:/Users/sheor501/vz/gitlab/arvind-cicd-pipeline/cdaas-demo-app-main/./.mvn/repository/org/springframework/boot/spring-boot-actuator-autoconfigure/2.4.0/spring-boot-actuator-autoconfigure-2.4.0.jar:/Users/sheor501/vz/gitlab/arvind-cicd-pipeline/cdaas-demo-app-main/./.mvn/repository/org/springframework/boot/spring-boot-actuator/2.4.0/spring-boot-actuator-2.4.0.jar:/Users/sheor501/vz/gitlab/arvind-cicd-pipeline/cdaas-demo-app-main/./.mvn/repository/io/micrometer/micrometer-core/1.6.1/micrometer-core-1.6.1.jar:/Users/sheor501/vz/gitlab/arvind-cicd-pipeline/cdaas-demo-app-main/./.mvn/repository/org/hdrhistogram/HdrHistogram/2.1.12/HdrHistogram-2.1.12.jar:/Users/sheor501/vz/gitlab/arvind-cicd-pipeline/cdaas-demo-app-main/./.mvn/repository/org/latencyutils/LatencyUtils/2.0.3/LatencyUtils-2.0.3.jar:/Users/sheor501/vz/gitlab/arvind-cicd-pipeline/cdaas-demo-app-main/./.mvn/repository/org/springframework/boot/spring-boot-devtools/2.4.0/spring-boot-devtools-2.4.0.jar:/Users/sheor501/vz/gitlab/arvind-cicd-pipeline/cdaas-demo-app-main/./.mvn/repository/org/springframework/boot/spring-boot/2.4.0/spring-boot-2.4.0.jar:/Users/sheor501/vz/gitlab/arvind-cicd-pipeline/cdaas-demo-app-main/./.mvn/repository/org/springframework/boot/spring-boot-autoconfigure/2.4.0/spring-boot-autoconfigure-2.4.0.jar:/Users/sheor501/vz/gitlab/arvind-cicd-pipeline/cdaas-demo-app-main/./.mvn/repository/org/springframework/boot/spring-boot-starter-test/2.4.0/spring-boot-starter-test-2.4.0.jar:/Users/sheor501/vz/gitlab/arvind-cicd-pipeline/cdaas-demo-app-main/./.mvn/repository/org/springframework/boot/spring-boot-test/2.4.0/spring-boot-test-2.4.0.jar:/Users/sheor501/vz/gitlab/arvind-cicd-pipeline/cdaas-demo-app-main/./.mvn/repository/org/springframework/boot/spring-boot-test-autoconfigure/2.4.0/spring-boot-test-autoconfigure-2.4.0.jar:/Users/sheor501/vz/gitlab/arvind-cicd-pipeline/cdaas-demo-app-main/./.mvn/repository/com/jayway/jsonpath/json-path/2.4.0/json-path-2.4.0.jar:/Users/sheor501/vz/gitlab/arvind-cicd-pipeline/cdaas-demo-app-main/./.mvn/repository/net/minidev/json-smart/2.3/json-smart-2.3.jar:/Users/sheor501/vz/gitlab/arvind-cicd-pipeline/cdaas-demo-app-main/./.mvn/repository/net/minidev/accessors-smart/1.2/accessors-smart-1.2.jar:/Users/sheor501/vz/gitlab/arvind-cicd-pipeline/cdaas-demo-app-main/./.mvn/repository/org/ow2/asm/asm/5.0.4/asm-5.0.4.jar:/Users/sheor501/vz/gitlab/arvind-cicd-pipeline/cdaas-demo-app-main/./.mvn/repository/jakarta/xml/bind/jakarta.xml.bind-api/2.3.3/jakarta.xml.bind-api-2.3.3.jar:/Users/sheor501/vz/gitlab/arvind-cicd-pipeline/cdaas-demo-app-main/./.mvn/repository/jakarta/activation/jakarta.activation-api/1.2.2/jakarta.activation-api-1.2.2.jar:/Users/sheor501/vz/gitlab/arvind-cicd-pipeline/cdaas-demo-app-main/./.mvn/repository/org/assertj/assertj-core/3.18.1/assertj-core-3.18.1.jar:/Users/sheor501/vz/gitlab/arvind-cicd-pipeline/cdaas-demo-app-main/./.mvn/repository/org/hamcrest/hamcrest/2.2/hamcrest-2.2.jar:/Users/sheor501/vz/gitlab/arvind-cicd-pipeline/cdaas-demo-app-main/./.mvn/repository/org/junit/jupiter/junit-jupiter/5.7.0/junit-jupiter-5.7.0.jar:/Users/sheor501/vz/gitlab/arvind-cicd-pipeline/cdaas-demo-app-main/./.mvn/repository/org/junit/jupiter/junit-jupiter-api/5.7.0/junit-jupiter-api-5.7.0.jar:/Users/sheor501/vz/gitlab/arvind-cicd-pipeline/cdaas-demo-app-main/./.mvn/repository/org/apiguardian/apiguardian-api/1.1.0/apiguardian-api-1.1.0.jar:/Users/sheor501/vz/gitlab/arvind-cicd-pipeline/cdaas-demo-app-main/./.mvn/repository/org/opentest4j/opentest4j/1.2.0/opentest4j-1.2.0.jar:/Users/sheor501/vz/gitlab/arvind-cicd-pipeline/cdaas-demo-app-main/./.mvn/repository/org/junit/platform/junit-platform-commons/1.7.0/junit-platform-commons-1.7.0.jar:/Users/sheor501/vz/gitlab/arvind-cicd-pipeline/cdaas-demo-app-main/./.mvn/repository/org/junit/jupiter/junit-jupiter-params/5.7.0/junit-jupiter-params-5.7.0.jar:/Users/sheor501/vz/gitlab/arvind-cicd-pipeline/cdaas-demo-app-main/./.mvn/repository/org/junit/jupiter/junit-jupiter-engine/5.7.0/junit-jupiter-engine-5.7.0.jar:/Users/sheor501/vz/gitlab/arvind-cicd-pipeline/cdaas-demo-app-main/./.mvn/repository/org/junit/platform/junit-platform-engine/1.7.0/junit-platform-engine-1.7.0.jar:/Users/sheor501/vz/gitlab/arvind-cicd-pipeline/cdaas-demo-app-main/./.mvn/repository/org/mockito/mockito-core/3.6.0/mockito-core-3.6.0.jar:/Users/sheor501/vz/gitlab/arvind-cicd-pipeline/cdaas-demo-app-main/./.mvn/repository/net/bytebuddy/byte-buddy/1.10.18/byte-buddy-1.10.18.jar:/Users/sheor501/vz/gitlab/arvind-cicd-pipeline/cdaas-demo-app-main/./.mvn/repository/net/bytebuddy/byte-buddy-agent/1.10.18/byte-buddy-agent-1.10.18.jar:/Users/sheor501/vz/gitlab/arvind-cicd-pipeline/cdaas-demo-app-main/./.mvn/repository/org/objenesis/objenesis/3.1/objenesis-3.1.jar:/Users/sheor501/vz/gitlab/arvind-cicd-pipeline/cdaas-demo-app-main/./.mvn/repository/org/mockito/mockito-junit-jupiter/3.6.0/mockito-junit-jupiter-3.6.0.jar:/Users/sheor501/vz/gitlab/arvind-cicd-pipeline/cdaas-demo-app-main/./.mvn/repository/org/skyscreamer/jsonassert/1.5.0/jsonassert-1.5.0.jar:/Users/sheor501/vz/gitlab/arvind-cicd-pipeline/cdaas-demo-app-main/./.mvn/repository/com/vaadin/external/google/android-json/0.0.20131108.vaadin1/android-json-0.0.20131108.vaadin1.jar:/Users/sheor501/vz/gitlab/arvind-cicd-pipeline/cdaas-demo-app-main/./.mvn/repository/org/springframework/spring-core/5.3.1/spring-core-5.3.1.jar:/Users/sheor501/vz/gitlab/arvind-cicd-pipeline/cdaas-demo-app-main/./.mvn/repository/org/springframework/spring-jcl/5.3.1/spring-jcl-5.3.1.jar:/Users/sheor501/vz/gitlab/arvind-cicd-pipeline/cdaas-demo-app-main/./.mvn/repository/org/springframework/spring-test/5.3.1/spring-test-5.3.1.jar:/Users/sheor501/vz/gitlab/arvind-cicd-pipeline/cdaas-demo-app-main/./.mvn/repository/org/xmlunit/xmlunit-core/2.7.0/xmlunit-core-2.7.0.jar:/Users/sheor501/vz/gitlab/arvind-cicd-pipeline/cdaas-demo-app-main/./.mvn/repository/io/gatling/highcharts/gatling-charts-highcharts/3.5.0/gatling-charts-highcharts-3.5.0.jar:/Users/sheor501/vz/gitlab/arvind-cicd-pipeline/cdaas-demo-app-main/./.mvn/repository/org/scala-lang/scala-library/2.13.3/scala-library-2.13.3.jar:/Users/sheor501/vz/gitlab/arvind-cicd-pipeline/cdaas-demo-app-main/./.mvn/repository/io/gatling/gatling-app/3.5.0/gatling-app-3.5.0.jar:/Users/sheor501/vz/gitlab/arvind-cicd-pipeline/cdaas-demo-app-main/./.mvn/repository/io/gatling/gatling-core/3.5.0/gatling-core-3.5.0.jar:/Users/sheor501/vz/gitlab/arvind-cicd-pipeline/cdaas-demo-app-main/./.mvn/repository/io/gatling/gatling-commons/3.5.0/gatling-commons-3.5.0.jar:/Users/sheor501/vz/gitlab/arvind-cicd-pipeline/cdaas-demo-app-main/./.mvn/repository/io/gatling/gatling-commons-shared/3.5.0/gatling-commons-shared-3.5.0.jar:/Users/sheor501/vz/gitlab/arvind-cicd-pipeline/cdaas-demo-app-main/./.mvn/repository/org/scala-lang/scala-reflect/2.13.3/scala-reflect-2.13.3.jar:/Users/sheor501/vz/gitlab/arvind-cicd-pipeline/cdaas-demo-app-main/./.mvn/repository/io/suzaku/boopickle_2.13/1.3.3/boopickle_2.13-1.3.3.jar:/Users/sheor501/vz/gitlab/arvind-cicd-pipeline/cdaas-demo-app-main/./.mvn/repository/io/gatling/gatling-commons-shared-unstable/3.5.0/gatling-commons-shared-unstable-3.5.0.jar:/Users/sheor501/vz/gitlab/arvind-cicd-pipeline/cdaas-demo-app-main/./.mvn/repository/org/typelevel/spire-macros_2.13/0.17.0/spire-macros_2.13-0.17.0.jar:/Users/sheor501/vz/gitlab/arvind-cicd-pipeline/cdaas-demo-app-main/./.mvn/repository/com/typesafe/scala-logging/scala-logging_2.13/3.9.2/scala-logging_2.13-3.9.2.jar:/Users/sheor501/vz/gitlab/arvind-cicd-pipeline/cdaas-demo-app-main/./.mvn/repository/io/gatling/gatling-jsonpath/3.5.0/gatling-jsonpath-3.5.0.jar:/Users/sheor501/vz/gitlab/arvind-cicd-pipeline/cdaas-demo-app-main/./.mvn/repository/com/typesafe/akka/akka-slf4j_2.13/2.6.10/akka-slf4j_2.13-2.6.10.jar:/Users/sheor501/vz/gitlab/arvind-cicd-pipeline/cdaas-demo-app-main/./.mvn/repository/org/simpleflatmapper/lightning-csv/8.2.3/lightning-csv-8.2.3.jar:/Users/sheor501/vz/gitlab/arvind-cicd-pipeline/cdaas-demo-app-main/./.mvn/repository/org/simpleflatmapper/sfm-util/8.2.3/sfm-util-8.2.3.jar:/Users/sheor501/vz/gitlab/arvind-cicd-pipeline/cdaas-demo-app-main/./.mvn/repository/com/github/ben-manes/caffeine/caffeine/2.8.6/caffeine-2.8.6.jar:/Users/sheor501/vz/gitlab/arvind-cicd-pipeline/cdaas-demo-app-main/./.mvn/repository/org/checkerframework/checker-qual/3.7.0/checker-qual-3.7.0.jar:/Users/sheor501/vz/gitlab/arvind-cicd-pipeline/cdaas-demo-app-main/./.mvn/repository/com/google/errorprone/error_prone_annotations/2.4.0/error_prone_annotations-2.4.0.jar:/Users/sheor501/vz/gitlab/arvind-cicd-pipeline/cdaas-demo-app-main/./.mvn/repository/io/pebbletemplates/pebble/3.1.4/pebble-3.1.4.jar:/Users/sheor501/vz/gitlab/arvind-cicd-pipeline/cdaas-demo-app-main/./.mvn/repository/org/scala-lang/modules/scala-parser-combinators_2.13/1.1.2/scala-parser-combinators_2.13-1.1.2.jar:/Users/sheor501/vz/gitlab/arvind-cicd-pipeline/cdaas-demo-app-main/./.mvn/repository/com/github/scopt/scopt_2.13/3.7.1/scopt_2.13-3.7.1.jar:/Users/sheor501/vz/gitlab/arvind-cicd-pipeline/cdaas-demo-app-main/./.mvn/repository/io/netty/netty-handler/4.1.54.Final/netty-handler-4.1.54.Final.jar:/Users/sheor501/vz/gitlab/arvind-cicd-pipeline/cdaas-demo-app-main/./.mvn/repository/io/netty/netty-resolver/4.1.54.Final/netty-resolver-4.1.54.Final.jar:/Users/sheor501/vz/gitlab/arvind-cicd-pipeline/cdaas-demo-app-main/./.mvn/repository/com/softwaremill/quicklens/quicklens_2.13/1.6.1/quicklens_2.13-1.6.1.jar:/Users/sheor501/vz/gitlab/arvind-cicd-pipeline/cdaas-demo-app-main/./.mvn/repository/net/sf/saxon/Saxon-HE/10.3/Saxon-HE-10.3.jar:/Users/sheor501/vz/gitlab/arvind-cicd-pipeline/cdaas-demo-app-main/./.mvn/repository/org/jodd/jodd-lagarto/6.0.2/jodd-lagarto-6.0.2.jar:/Users/sheor501/vz/gitlab/arvind-cicd-pipeline/cdaas-demo-app-main/./.mvn/repository/org/jodd/jodd-util/6.0.0/jodd-util-6.0.0.jar:/Users/sheor501/vz/gitlab/arvind-cicd-pipeline/cdaas-demo-app-main/./.mvn/repository/io/burt/jmespath-jackson/0.5.0/jmespath-jackson-0.5.0.jar:/Users/sheor501/vz/gitlab/arvind-cicd-pipeline/cdaas-demo-app-main/./.mvn/repository/io/burt/jmespath-core/0.5.0/jmespath-core-0.5.0.jar:/Users/sheor501/vz/gitlab/arvind-cicd-pipeline/cdaas-demo-app-main/./.mvn/repository/io/gatling/gatling-http/3.5.0/gatling-http-3.5.0.jar:/Users/sheor501/vz/gitlab/arvind-cicd-pipeline/cdaas-demo-app-main/./.mvn/repository/io/gatling/gatling-http-client/3.5.0/gatling-http-client-3.5.0.jar:/Users/sheor501/vz/gitlab/arvind-cicd-pipeline/cdaas-demo-app-main/./.mvn/repository/io/gatling/gatling-netty-util/3.5.0/gatling-netty-util-3.5.0.jar:/Users/sheor501/vz/gitlab/arvind-cicd-pipeline/cdaas-demo-app-main/./.mvn/repository/io/netty/netty-handler-proxy/4.1.54.Final/netty-handler-proxy-4.1.54.Final.jar:/Users/sheor501/vz/gitlab/arvind-cicd-pipeline/cdaas-demo-app-main/./.mvn/repository/io/netty/netty-codec-socks/4.1.54.Final/netty-codec-socks-4.1.54.Final.jar:/Users/sheor501/vz/gitlab/arvind-cicd-pipeline/cdaas-demo-app-main/./.mvn/repository/io/netty/netty-resolver-dns/4.1.54.Final/netty-resolver-dns-4.1.54.Final.jar:/Users/sheor501/vz/gitlab/arvind-cicd-pipeline/cdaas-demo-app-main/./.mvn/repository/io/netty/netty-codec-dns/4.1.54.Final/netty-codec-dns-4.1.54.Final.jar:/Users/sheor501/vz/gitlab/arvind-cicd-pipeline/cdaas-demo-app-main/./.mvn/repository/io/netty/netty-transport-native-epoll/4.1.54.Final/netty-transport-native-epoll-4.1.54.Final-linux-x86_64.jar:/Users/sheor501/vz/gitlab/arvind-cicd-pipeline/cdaas-demo-app-main/./.mvn/repository/io/netty/netty-transport-native-unix-common/4.1.54.Final/netty-transport-native-unix-common-4.1.54.Final.jar:/Users/sheor501/vz/gitlab/arvind-cicd-pipeline/cdaas-demo-app-main/./.mvn/repository/io/netty/netty-codec-http2/4.1.54.Final/netty-codec-http2-4.1.54.Final.jar:/Users/sheor501/vz/gitlab/arvind-cicd-pipeline/cdaas-demo-app-main/./.mvn/repository/io/netty/netty-tcnative-boringssl-static/2.0.34.Final/netty-tcnative-boringssl-static-2.0.34.Final.jar:/Users/sheor501/vz/gitlab/arvind-cicd-pipeline/cdaas-demo-app-main/./.mvn/repository/io/gatling/gatling-jms/3.5.0/gatling-jms-3.5.0.jar:/Users/sheor501/vz/gitlab/arvind-cicd-pipeline/cdaas-demo-app-main/./.mvn/repository/javax/jms/javax.jms-api/2.0.1/javax.jms-api-2.0.1.jar:/Users/sheor501/vz/gitlab/arvind-cicd-pipeline/cdaas-demo-app-main/./.mvn/repository/com/eatthepath/fast-uuid/0.1/fast-uuid-0.1.jar:/Users/sheor501/vz/gitlab/arvind-cicd-pipeline/cdaas-demo-app-main/./.mvn/repository/io/gatling/gatling-jdbc/3.5.0/gatling-jdbc-3.5.0.jar:/Users/sheor501/vz/gitlab/arvind-cicd-pipeline/cdaas-demo-app-main/./.mvn/repository/io/gatling/gatling-redis/3.5.0/gatling-redis-3.5.0.jar:/Users/sheor501/vz/gitlab/arvind-cicd-pipeline/cdaas-demo-app-main/./.mvn/repository/net/debasishg/redisclient_2.13/3.30/redisclient_2.13-3.30.jar:/Users/sheor501/vz/gitlab/arvind-cicd-pipeline/cdaas-demo-app-main/./.mvn/repository/org/apache/commons/commons-pool2/2.9.0/commons-pool2-2.9.0.jar:/Users/sheor501/vz/gitlab/arvind-cicd-pipeline/cdaas-demo-app-main/./.mvn/repository/io/gatling/gatling-graphite/3.5.0/gatling-graphite-3.5.0.jar:/Users/sheor501/vz/gitlab/arvind-cicd-pipeline/cdaas-demo-app-main/./.mvn/repository/io/gatling/gatling-charts/3.5.0/gatling-charts-3.5.0.jar:/Users/sheor501/vz/gitlab/arvind-cicd-pipeline/cdaas-demo-app-main/./.mvn/repository/com/tdunning/t-digest/3.1/t-digest-3.1.jar:/Users/sheor501/vz/gitlab/arvind-cicd-pipeline/cdaas-demo-app-main/./.mvn/repository/io/gatling/gatling-recorder/3.5.0/gatling-recorder-3.5.0.jar:/Users/sheor501/vz/gitlab/arvind-cicd-pipeline/cdaas-demo-app-main/./.mvn/repository/org/scala-lang/modules/scala-swing_2.13/3.0.0/scala-swing_2.13-3.0.0.jar:/Users/sheor501/vz/gitlab/arvind-cicd-pipeline/cdaas-demo-app-main/./.mvn/repository/org/bouncycastle/bcpkix-jdk15on/1.67/bcpkix-jdk15on-1.67.jar:/Users/sheor501/vz/gitlab/arvind-cicd-pipeline/cdaas-demo-app-main/./.mvn/repository/org/bouncycastle/bcprov-jdk15on/1.67/bcprov-jdk15on-1.67.jar:/Users/sheor501/vz/gitlab/arvind-cicd-pipeline/cdaas-demo-app-main/./.mvn/repository/io/netty/netty-codec-http/4.1.54.Final/netty-codec-http-4.1.54.Final.jar:/Users/sheor501/vz/gitlab/arvind-cicd-pipeline/cdaas-demo-app-main/./.mvn/repository/io/netty/netty-common/4.1.54.Final/netty-common-4.1.54.Final.jar:/Users/sheor501/vz/gitlab/arvind-cicd-pipeline/cdaas-demo-app-main/./.mvn/repository/io/netty/netty-buffer/4.1.54.Final/netty-buffer-4.1.54.Final.jar:/Users/sheor501/vz/gitlab/arvind-cicd-pipeline/cdaas-demo-app-main/./.mvn/repository/io/netty/netty-transport/4.1.54.Final/netty-transport-4.1.54.Final.jar:/Users/sheor501/vz/gitlab/arvind-cicd-pipeline/cdaas-demo-app-main/./.mvn/repository/io/netty/netty-codec/4.1.54.Final/netty-codec-4.1.54.Final.jar:/Users/sheor501/vz/gitlab/arvind-cicd-pipeline/cdaas-demo-app-main/./.mvn/repository/com/typesafe/akka/akka-actor_2.13/2.6.10/akka-actor_2.13-2.6.10.jar:/Users/sheor501/vz/gitlab/arvind-cicd-pipeline/cdaas-demo-app-main/./.mvn/repository/com/typesafe/config/1.4.0/config-1.4.0.jar:/Users/sheor501/vz/gitlab/arvind-cicd-pipeline/cdaas-demo-app-main/./.mvn/repository/org/scala-lang/modules/scala-java8-compat_2.13/0.9.0/scala-java8-compat_2.13-0.9.0.jar:"/>
    <property name="sun.cpu.endian" value="little"/>
    <property name="user.home" value="/Users/sheor501"/>
    <property name="user.language" value="en"/>
    <property name="java.specification.vendor" value="Oracle Corporation"/>
    <property name="java.version.date" value="2019-10-15"/>
    <property name="java.home" value="/Library/Java/JavaVirtualMachines/jdk-13.0.1.jdk/Contents/Home"/>
    <property name="file.separator" value="/"/>
    <property name="basedir" value="/Users/sheor501/vz/gitlab/arvind-cicd-pipeline/cdaas-demo-app-main"/>
    <property name="java.vm.compressedOopsMode" value="Zero based"/>
    <property name="line.separator" value="&#10;"/>
    <property name="java.specification.name" value="Java Platform API Specification"/>
    <property name="java.vm.specification.vendor" value="Oracle Corporation"/>
    <property name="surefire.real.class.path" value="/Users/sheor501/vz/gitlab/arvind-cicd-pipeline/cdaas-demo-app-main/target/surefire/surefirebooter14306425813166083189.jar"/>
    <property name="sun.management.compiler" value="HotSpot 64-Bit Tiered Compilers"/>
    <property name="ftp.nonProxyHosts" value="local|*.local|169.254/16|*.169.254/16|localhost|*.localhost"/>
    <property name="java.runtime.version" value="13.0.1+9"/>
    <property name="user.name" value="sheor501"/>
    <property name="path.separator" value=":"/>
    <property name="os.version" value="10.15.7"/>
    <property name="java.runtime.name" value="Java(TM) SE Runtime Environment"/>
    <property name="file.encoding" value="UTF-8"/>
    <property name="java.vm.name" value="Java HotSpot(TM) 64-Bit Server VM"/>
    <property name="localRepository" value="/Users/sheor501/vz/gitlab/arvind-cicd-pipeline/cdaas-demo-app-main/./.mvn/repository"/>
    <property name="java.vendor.url.bug" value="https://bugreport.java.com/bugreport/"/>
    <property name="java.io.tmpdir" value="/var/folders/fd/6gg1xpr10rgd_8967wvb68740000gp/T/"/>
    <property name="java.version" value="13.0.1"/>
    <property name="user.dir" value="/Users/sheor501/vz/gitlab/arvind-cicd-pipeline/cdaas-demo-app-main"/>
    <property name="os.arch" value="x86_64"/>
    <property name="java.vm.specification.name" value="Java Virtual Machine Specification"/>
    <property name="java.library.path" value="/Users/sheor501/Library/Java/Extensions:/Library/Java/Extensions:/Network/Library/Java/Extensions:/System/Library/Java/Extensions:/usr/lib/java:."/>
    <property name="java.vm.info" value="mixed mode, sharing"/>
    <property name="java.vendor" value="Oracle Corporation"/>
    <property name="java.vm.version" value="13.0.1+9"/>
    <property name="sun.io.unicode.encoding" value="UnicodeBig"/>
    <property name="socksNonProxyHosts" value="local|*.local|169.254/16|*.169.254/16|localhost|*.localhost"/>
    <property name="java.class.version" value="57.0"/>
  </properties>
  <testcase name="adminer" classname="com.demo.DemoControllerTest" time="0.726"/>
  <testcase name="artifactory" classname="com.demo.DemoControllerTest" time="0.005"/>
  <testcase name="pgadmin" classname="com.demo.DemoControllerTest" time="0.005"/>
  <testcase name="cdaas" classname="com.demo.DemoControllerTest" time="0.006"/>
</testsuite>